0 Jonas 8
1 Francisco 3
2 Marcia 4
3 Marta 5
4 Ana 10
5 Renato 9
6 Luan 6
7 Maria 9
8 Julia 10
9 Luiza 2
10 Matheus 8
11 Fernando 5
12 Pablo 4
13 Aldo 9
14 Beatriz 3
15 Simone 5
16 Guilherme 8
17 Carlos 1
